…
To list the unique name of console.

``` r
sales_data %>% 
  distinct(console)
```

    ## # A tibble: 39 x 1
    ##    console
    ##    <chr>  
    ##  1 Wii    
    ##  2 NES    
    ##  3 GB     
    ##  4 DS     
    ##  5 X360   
    ##  6 PS2    
    ##  7 SNES   
    ##  8 PS3    
    ##  9 PS4    
    ## 10 3DS    
    ## # ... with 29 more rows
…
